Suite/Test/Step Name,Browser,Description,Tag,Start time,End time,Duration,Status
TestSuiteExcel,Chrome 74.0.3729.131,,,2019-05-13 14:17:23,2019-05-13 14:18:23,59.660s,PASSED
,,,,,,,
Test Cases/test_katalon2,Chrome 74.0.3729.131,,,2019-05-13 14:17:23,2019-05-13 14:18:21,57.782s,PASSED
Start listener action : sampleBeforeTestCase,Chrome 74.0.3729.131,,,2019-05-13 14:17:23,2019-05-13 14:17:23,0.000s,PASSED
"openBrowser("""")",Chrome 74.0.3729.131,,,2019-05-13 14:17:24,2019-05-13 14:17:36,12.228s,PASSED
"navigateToUrl(""https://katalon-demo-cura.herokuapp.com"")",Chrome 74.0.3729.131,,,2019-05-13 14:17:36,2019-05-13 14:17:39,3.425s,PASSED
"get.Screencapture.getEntirePage("""")",Chrome 74.0.3729.131,,,2019-05-13 14:17:39,2019-05-13 14:17:45,6.042s,PASSED
"click(findTestObject(""Page_CURA Healthcare Service/a_Make Appointment""))",Chrome 74.0.3729.131,,,2019-05-13 14:17:45,2019-05-13 14:17:47,1.726s,PASSED
"get.Screencapture.getEntirePage("""")",Chrome 74.0.3729.131,,,2019-05-13 14:17:47,2019-05-13 14:17:52,4.950s,PASSED
"setText(findTestObject(""Page_CURA Healthcare Service/input_Username_username""), ""John Doe"")",Chrome 74.0.3729.131,,,2019-05-13 14:17:52,2019-05-13 14:17:52,0.430s,PASSED
"get.Screencapture.getEntirePage("""")",Chrome 74.0.3729.131,,,2019-05-13 14:17:52,2019-05-13 14:17:57,4.960s,PASSED
"setEncryptedText(findTestObject(""Page_CURA Healthcare Service/input_Password_password""), ""g3/DOGG74jC3Flrr3yH+3D/yKbOqqUNM"")",Chrome 74.0.3729.131,,,2019-05-13 14:17:57,2019-05-13 14:17:58,0.284s,PASSED
"get.Screencapture.getEntirePage("""")",Chrome 74.0.3729.131,,,2019-05-13 14:17:58,2019-05-13 14:18:02,4.897s,PASSED
"click(findTestObject(""Page_CURA Healthcare Service/button_Login""))",Chrome 74.0.3729.131,,,2019-05-13 14:18:03,2019-05-13 14:18:04,1.694s,PASSED
"get.Screencapture.getEntirePage("""")",Chrome 74.0.3729.131,,,2019-05-13 14:18:04,2019-05-13 14:18:09,5.006s,PASSED
"click(findTestObject(""Page_CURA Healthcare Service/a_CURA Healthcare_menu-toggle""))",Chrome 74.0.3729.131,,,2019-05-13 14:18:09,2019-05-13 14:18:09,0.109s,PASSED
"get.Screencapture.getEntirePage("""")",Chrome 74.0.3729.131,,,2019-05-13 14:18:09,2019-05-13 14:18:15,5.192s,PASSED
"click(findTestObject(""Page_CURA Healthcare Service/a_Logout""))",Chrome 74.0.3729.131,,,2019-05-13 14:18:15,2019-05-13 14:18:17,2.876s,PASSED
"get.Screencapture.getEntirePage("""")",Chrome 74.0.3729.131,,,2019-05-13 14:18:17,2019-05-13 14:18:21,3.591s,PASSED
Start listener action : sampleAfterTestCase,Chrome 74.0.3729.131,,,2019-05-13 14:18:21,2019-05-13 14:18:21,0.001s,PASSED
