Suite/Test/Step Name,Browser,Description,Tag,Start time,End time,Duration,Status
TestSuiteExcel,Chrome 74.0.3729.131,,,2019-05-14 15:07:45,2019-05-14 15:09:54,2m - 8.355s,PASSED
,,,,,,,
Test Cases/test_katalon6,Chrome 74.0.3729.131,,,2019-05-14 15:07:46,2019-05-14 15:08:14,27.760s,PASSED
Start listener action : sampleBeforeTestCase,Chrome 74.0.3729.131,,,2019-05-14 15:07:46,2019-05-14 15:07:46,0.001s,PASSED
"openBrowser("""")",Chrome 74.0.3729.131,,,2019-05-14 15:07:46,2019-05-14 15:08:02,16.064s,PASSED
"navigateToUrl(""https://katalon-demo-cura.herokuapp.com/"")",Chrome 74.0.3729.131,,,2019-05-14 15:08:02,2019-05-14 15:08:09,6.607s,PASSED
"click(findTestObject(""Object Repository/Page_CURA Healthcare Service/a_Make Appointment""))",Chrome 74.0.3729.131,,,2019-05-14 15:08:09,2019-05-14 15:08:10,1.136s,PASSED
"setText(findTestObject(""Object Repository/Page_CURA Healthcare Service/input_Username_username""), user)",Chrome 74.0.3729.131,,,2019-05-14 15:08:10,2019-05-14 15:08:11,0.300s,PASSED
"setText(findTestObject(""Page_CURA Healthcare Service/input_Password_password""), password)",Chrome 74.0.3729.131,,,2019-05-14 15:08:11,2019-05-14 15:08:11,0.330s,PASSED
"click(findTestObject(""Object Repository/Page_CURA Healthcare Service/button_Login""))",Chrome 74.0.3729.131,,,2019-05-14 15:08:11,2019-05-14 15:08:12,1.493s,PASSED
"verifyElementPresent(findTestObject(""Page_CURA Healthcare Service/Page_CURA Healthcare Service/h2_Make Appointment""), 0, OPTIONAL)",Chrome 74.0.3729.131,,,2019-05-14 15:08:12,2019-05-14 15:08:13,0.416s,PASSED
closeBrowser(),Chrome 74.0.3729.131,,,2019-05-14 15:08:13,2019-05-14 15:08:14,0.910s,PASSED
Start listener action : sampleAfterTestCase,Chrome 74.0.3729.131,,,2019-05-14 15:08:14,2019-05-14 15:08:14,0.004s,PASSED
,,,,,,,
Test Cases/test_katalon6,Chrome 74.0.3729.131,,,2019-05-14 15:08:14,2019-05-14 15:09:04,50.290s,PASSED
Start listener action : sampleBeforeTestCase,Chrome 74.0.3729.131,,,2019-05-14 15:08:14,2019-05-14 15:08:14,0.000s,PASSED
"openBrowser("""")",Chrome 74.0.3729.131,,,2019-05-14 15:08:14,2019-05-14 15:08:18,4.566s,PASSED
"navigateToUrl(""https://katalon-demo-cura.herokuapp.com/"")",Chrome 74.0.3729.131,,,2019-05-14 15:08:18,2019-05-14 15:08:26,7.690s,PASSED
"click(findTestObject(""Object Repository/Page_CURA Healthcare Service/a_Make Appointment""))",Chrome 74.0.3729.131,,,2019-05-14 15:08:26,2019-05-14 15:08:27,0.851s,PASSED
"setText(findTestObject(""Object Repository/Page_CURA Healthcare Service/input_Username_username""), user)",Chrome 74.0.3729.131,,,2019-05-14 15:08:27,2019-05-14 15:08:27,0.216s,PASSED
"setText(findTestObject(""Page_CURA Healthcare Service/input_Password_password""), password)",Chrome 74.0.3729.131,,,2019-05-14 15:08:27,2019-05-14 15:08:27,0.273s,PASSED
"click(findTestObject(""Object Repository/Page_CURA Healthcare Service/button_Login""))",Chrome 74.0.3729.131,,,2019-05-14 15:08:27,2019-05-14 15:08:28,0.866s,PASSED
"verifyElementPresent(findTestObject(""Page_CURA Healthcare Service/Page_CURA Healthcare Service/h2_Make Appointment""), 0, OPTIONAL)",Chrome 74.0.3729.131,,,2019-05-14 15:08:28,2019-05-14 15:09:03,34.309s,PASSED
closeBrowser(),Chrome 74.0.3729.131,,,2019-05-14 15:09:03,2019-05-14 15:09:04,1.414s,PASSED
Start listener action : sampleAfterTestCase,Chrome 74.0.3729.131,,,2019-05-14 15:09:04,2019-05-14 15:09:04,0.000s,PASSED
,,,,,,,
Test Cases/test_katalon6,Chrome 74.0.3729.131,,,2019-05-14 15:09:04,2019-05-14 15:09:53,48.685s,PASSED
Start listener action : sampleBeforeTestCase,Chrome 74.0.3729.131,,,2019-05-14 15:09:04,2019-05-14 15:09:04,0.000s,PASSED
"openBrowser("""")",Chrome 74.0.3729.131,,,2019-05-14 15:09:04,2019-05-14 15:09:09,4.552s,PASSED
"navigateToUrl(""https://katalon-demo-cura.herokuapp.com/"")",Chrome 74.0.3729.131,,,2019-05-14 15:09:09,2019-05-14 15:09:16,7.713s,PASSED
"click(findTestObject(""Object Repository/Page_CURA Healthcare Service/a_Make Appointment""))",Chrome 74.0.3729.131,,,2019-05-14 15:09:16,2019-05-14 15:09:17,0.888s,PASSED
"setText(findTestObject(""Object Repository/Page_CURA Healthcare Service/input_Username_username""), user)",Chrome 74.0.3729.131,,,2019-05-14 15:09:17,2019-05-14 15:09:17,0.209s,PASSED
"setText(findTestObject(""Page_CURA Healthcare Service/input_Password_password""), password)",Chrome 74.0.3729.131,,,2019-05-14 15:09:17,2019-05-14 15:09:18,0.186s,PASSED
"click(findTestObject(""Object Repository/Page_CURA Healthcare Service/button_Login""))",Chrome 74.0.3729.131,,,2019-05-14 15:09:18,2019-05-14 15:09:19,0.939s,PASSED
"verifyElementPresent(findTestObject(""Page_CURA Healthcare Service/Page_CURA Healthcare Service/h2_Make Appointment""), 0, OPTIONAL)",Chrome 74.0.3729.131,,,2019-05-14 15:09:19,2019-05-14 15:09:52,33.378s,PASSED
closeBrowser(),Chrome 74.0.3729.131,,,2019-05-14 15:09:52,2019-05-14 15:09:53,0.748s,PASSED
Start listener action : sampleAfterTestCase,Chrome 74.0.3729.131,,,2019-05-14 15:09:53,2019-05-14 15:09:53,0.000s,PASSED
