Suite/Test/Step Name,Browser,Description,Tag,Start time,End time,Duration,Status
TestSuiteExcel,Chrome 74.0.3729.131,,,2019-05-14 15:56:00,2019-05-14 15:58:38,2m - 38.274s,FAILED
,,,,,,,
Test Cases/test_katalon7,Chrome 74.0.3729.131,,,2019-05-14 15:56:01,2019-05-14 15:56:17,16.490s,PASSED
Start listener action : sampleBeforeTestCase,Chrome 74.0.3729.131,,,2019-05-14 15:56:01,2019-05-14 15:56:01,0.000s,PASSED
"openBrowser("""")",Chrome 74.0.3729.131,,,2019-05-14 15:56:01,2019-05-14 15:56:07,6.029s,PASSED
"navigateToUrl(""https://katalon-demo-cura.herokuapp.com/"")",Chrome 74.0.3729.131,,,2019-05-14 15:56:07,2019-05-14 15:56:14,6.609s,PASSED
"click(findTestObject(""Object Repository/Page_CURA Healthcare Service/a_Make Appointment""))",Chrome 74.0.3729.131,,,2019-05-14 15:56:14,2019-05-14 15:56:14,0.843s,PASSED
"setText(findTestObject(""Object Repository/Page_CURA Healthcare Service/input_Username_username""), user)",Chrome 74.0.3729.131,,,2019-05-14 15:56:14,2019-05-14 15:56:15,0.209s,PASSED
"setText(findTestObject(""Page_CURA Healthcare Service/input_Password_password""), password)",Chrome 74.0.3729.131,,,2019-05-14 15:56:15,2019-05-14 15:56:15,0.227s,PASSED
"click(findTestObject(""Object Repository/Page_CURA Healthcare Service/button_Login""))",Chrome 74.0.3729.131,,,2019-05-14 15:56:15,2019-05-14 15:56:16,0.892s,PASSED
"if (status == ""x"")",Chrome 74.0.3729.131,,,2019-05-14 15:56:16,2019-05-14 15:56:16,0.358s,PASSED
closeBrowser(),Chrome 74.0.3729.131,,,2019-05-14 15:56:16,2019-05-14 15:56:17,0.901s,PASSED
Start listener action : sampleAfterTestCase,Chrome 74.0.3729.131,,,2019-05-14 15:56:17,2019-05-14 15:56:17,0.000s,PASSED
,,,,,,,
Test Cases/test_katalon7,Chrome 74.0.3729.131,,,2019-05-14 15:56:17,2019-05-14 15:56:35,18.339s,PASSED
Start listener action : sampleBeforeTestCase,Chrome 74.0.3729.131,,,2019-05-14 15:56:17,2019-05-14 15:56:17,0.014s,PASSED
"openBrowser("""")",Chrome 74.0.3729.131,,,2019-05-14 15:56:17,2019-05-14 15:56:20,3.236s,PASSED
"navigateToUrl(""https://katalon-demo-cura.herokuapp.com/"")",Chrome 74.0.3729.131,,,2019-05-14 15:56:20,2019-05-14 15:56:31,10.591s,PASSED
"click(findTestObject(""Object Repository/Page_CURA Healthcare Service/a_Make Appointment""))",Chrome 74.0.3729.131,,,2019-05-14 15:56:31,2019-05-14 15:56:33,1.509s,PASSED
"setText(findTestObject(""Object Repository/Page_CURA Healthcare Service/input_Username_username""), user)",Chrome 74.0.3729.131,,,2019-05-14 15:56:33,2019-05-14 15:56:33,0.196s,PASSED
"setText(findTestObject(""Page_CURA Healthcare Service/input_Password_password""), password)",Chrome 74.0.3729.131,,,2019-05-14 15:56:33,2019-05-14 15:56:33,0.204s,PASSED
"click(findTestObject(""Object Repository/Page_CURA Healthcare Service/button_Login""))",Chrome 74.0.3729.131,,,2019-05-14 15:56:33,2019-05-14 15:56:35,1.706s,PASSED
"if (status == ""x"")",Chrome 74.0.3729.131,,,2019-05-14 15:56:35,2019-05-14 15:56:35,0.096s,PASSED
closeBrowser(),Chrome 74.0.3729.131,,,2019-05-14 15:56:35,2019-05-14 15:56:35,0.688s,PASSED
Start listener action : sampleAfterTestCase,Chrome 74.0.3729.131,,,2019-05-14 15:56:35,2019-05-14 15:56:35,0.000s,PASSED
,,,,,,,
Test Cases/test_katalon7,Chrome 74.0.3729.131,,,2019-05-14 15:56:35,2019-05-14 15:56:47,11.626s,PASSED
Start listener action : sampleBeforeTestCase,Chrome 74.0.3729.131,,,2019-05-14 15:56:35,2019-05-14 15:56:35,0.000s,PASSED
"openBrowser("""")",Chrome 74.0.3729.131,,,2019-05-14 15:56:35,2019-05-14 15:56:39,3.110s,PASSED
"navigateToUrl(""https://katalon-demo-cura.herokuapp.com/"")",Chrome 74.0.3729.131,,,2019-05-14 15:56:39,2019-05-14 15:56:44,5.286s,PASSED
"click(findTestObject(""Object Repository/Page_CURA Healthcare Service/a_Make Appointment""))",Chrome 74.0.3729.131,,,2019-05-14 15:56:44,2019-05-14 15:56:45,0.913s,PASSED
"setText(findTestObject(""Object Repository/Page_CURA Healthcare Service/input_Username_username""), user)",Chrome 74.0.3729.131,,,2019-05-14 15:56:45,2019-05-14 15:56:45,0.129s,PASSED
"setText(findTestObject(""Page_CURA Healthcare Service/input_Password_password""), password)",Chrome 74.0.3729.131,,,2019-05-14 15:56:45,2019-05-14 15:56:45,0.228s,PASSED
"click(findTestObject(""Object Repository/Page_CURA Healthcare Service/button_Login""))",Chrome 74.0.3729.131,,,2019-05-14 15:56:45,2019-05-14 15:56:46,0.977s,PASSED
"if (status == ""x"")",Chrome 74.0.3729.131,,,2019-05-14 15:56:46,2019-05-14 15:56:46,0.109s,PASSED
closeBrowser(),Chrome 74.0.3729.131,,,2019-05-14 15:56:46,2019-05-14 15:56:47,0.859s,PASSED
Start listener action : sampleAfterTestCase,Chrome 74.0.3729.131,,,2019-05-14 15:56:47,2019-05-14 15:56:47,0.000s,PASSED
,,,,,,,
Test Cases/test_katalon7,Chrome 74.0.3729.131,,,2019-05-14 15:56:47,2019-05-14 15:57:00,12.674s,PASSED
Start listener action : sampleBeforeTestCase,Chrome 74.0.3729.131,,,2019-05-14 15:56:47,2019-05-14 15:56:47,0.000s,PASSED
"openBrowser("""")",Chrome 74.0.3729.131,,,2019-05-14 15:56:47,2019-05-14 15:56:52,4.606s,PASSED
"navigateToUrl(""https://katalon-demo-cura.herokuapp.com/"")",Chrome 74.0.3729.131,,,2019-05-14 15:56:52,2019-05-14 15:56:57,4.879s,PASSED
"click(findTestObject(""Object Repository/Page_CURA Healthcare Service/a_Make Appointment""))",Chrome 74.0.3729.131,,,2019-05-14 15:56:57,2019-05-14 15:56:57,0.809s,PASSED
"setText(findTestObject(""Object Repository/Page_CURA Healthcare Service/input_Username_username""), user)",Chrome 74.0.3729.131,,,2019-05-14 15:56:57,2019-05-14 15:56:58,0.174s,PASSED
"setText(findTestObject(""Page_CURA Healthcare Service/input_Password_password""), password)",Chrome 74.0.3729.131,,,2019-05-14 15:56:58,2019-05-14 15:56:58,0.134s,PASSED
"click(findTestObject(""Object Repository/Page_CURA Healthcare Service/button_Login""))",Chrome 74.0.3729.131,,,2019-05-14 15:56:58,2019-05-14 15:56:59,1.240s,PASSED
"if (status == ""x"")",Chrome 74.0.3729.131,,,2019-05-14 15:56:59,2019-05-14 15:56:59,0.085s,PASSED
closeBrowser(),Chrome 74.0.3729.131,,,2019-05-14 15:56:59,2019-05-14 15:57:00,0.685s,PASSED
Start listener action : sampleAfterTestCase,Chrome 74.0.3729.131,,,2019-05-14 15:57:00,2019-05-14 15:57:00,0.000s,PASSED
,,,,,,,
Test Cases/test_katalon7,Chrome 74.0.3729.131,,,2019-05-14 15:57:00,2019-05-14 15:57:19,19.025s,PASSED
Start listener action : sampleBeforeTestCase,Chrome 74.0.3729.131,,,2019-05-14 15:57:00,2019-05-14 15:57:00,0.000s,PASSED
"openBrowser("""")",Chrome 74.0.3729.131,,,2019-05-14 15:57:00,2019-05-14 15:57:03,3.070s,PASSED
"navigateToUrl(""https://katalon-demo-cura.herokuapp.com/"")",Chrome 74.0.3729.131,,,2019-05-14 15:57:03,2019-05-14 15:57:14,11.443s,PASSED
"click(findTestObject(""Object Repository/Page_CURA Healthcare Service/a_Make Appointment""))",Chrome 74.0.3729.131,,,2019-05-14 15:57:14,2019-05-14 15:57:15,0.705s,PASSED
"setText(findTestObject(""Object Repository/Page_CURA Healthcare Service/input_Username_username""), user)",Chrome 74.0.3729.131,,,2019-05-14 15:57:15,2019-05-14 15:57:15,0.171s,PASSED
"setText(findTestObject(""Page_CURA Healthcare Service/input_Password_password""), password)",Chrome 74.0.3729.131,,,2019-05-14 15:57:15,2019-05-14 15:57:15,0.152s,PASSED
"click(findTestObject(""Object Repository/Page_CURA Healthcare Service/button_Login""))",Chrome 74.0.3729.131,,,2019-05-14 15:57:15,2019-05-14 15:57:18,2.648s,PASSED
"if (status == ""x"")",Chrome 74.0.3729.131,,,2019-05-14 15:57:18,2019-05-14 15:57:18,0.116s,PASSED
closeBrowser(),Chrome 74.0.3729.131,,,2019-05-14 15:57:18,2019-05-14 15:57:19,0.674s,PASSED
Start listener action : sampleAfterTestCase,Chrome 74.0.3729.131,,,2019-05-14 15:57:19,2019-05-14 15:57:19,0.000s,PASSED
,,,,,,,
Test Cases/test_katalon7,Chrome 74.0.3729.131,,,2019-05-14 15:57:19,2019-05-14 15:57:38,18.949s,PASSED
Start listener action : sampleBeforeTestCase,Chrome 74.0.3729.131,,,2019-05-14 15:57:19,2019-05-14 15:57:19,0.000s,PASSED
"openBrowser("""")",Chrome 74.0.3729.131,,,2019-05-14 15:57:19,2019-05-14 15:57:22,3.333s,PASSED
"navigateToUrl(""https://katalon-demo-cura.herokuapp.com/"")",Chrome 74.0.3729.131,,,2019-05-14 15:57:22,2019-05-14 15:57:34,11.408s,PASSED
"click(findTestObject(""Object Repository/Page_CURA Healthcare Service/a_Make Appointment""))",Chrome 74.0.3729.131,,,2019-05-14 15:57:34,2019-05-14 15:57:34,0.921s,PASSED
"setText(findTestObject(""Object Repository/Page_CURA Healthcare Service/input_Username_username""), user)",Chrome 74.0.3729.131,,,2019-05-14 15:57:34,2019-05-14 15:57:35,0.180s,PASSED
"setText(findTestObject(""Page_CURA Healthcare Service/input_Password_password""), password)",Chrome 74.0.3729.131,,,2019-05-14 15:57:35,2019-05-14 15:57:35,0.204s,PASSED
"click(findTestObject(""Object Repository/Page_CURA Healthcare Service/button_Login""))",Chrome 74.0.3729.131,,,2019-05-14 15:57:35,2019-05-14 15:57:37,2.073s,PASSED
"if (status == ""x"")",Chrome 74.0.3729.131,,,2019-05-14 15:57:37,2019-05-14 15:57:37,0.069s,PASSED
closeBrowser(),Chrome 74.0.3729.131,,,2019-05-14 15:57:37,2019-05-14 15:57:38,0.701s,PASSED
Start listener action : sampleAfterTestCase,Chrome 74.0.3729.131,,,2019-05-14 15:57:38,2019-05-14 15:57:38,0.000s,PASSED
,,,,,,,
Test Cases/test_katalon7,Chrome 74.0.3729.131,,,2019-05-14 15:57:38,2019-05-14 15:57:57,19.058s,PASSED
Start listener action : sampleBeforeTestCase,Chrome 74.0.3729.131,,,2019-05-14 15:57:38,2019-05-14 15:57:38,0.000s,PASSED
"openBrowser("""")",Chrome 74.0.3729.131,,,2019-05-14 15:57:38,2019-05-14 15:57:42,3.758s,PASSED
"navigateToUrl(""https://katalon-demo-cura.herokuapp.com/"")",Chrome 74.0.3729.131,,,2019-05-14 15:57:42,2019-05-14 15:57:52,10.696s,PASSED
"click(findTestObject(""Object Repository/Page_CURA Healthcare Service/a_Make Appointment""))",Chrome 74.0.3729.131,,,2019-05-14 15:57:52,2019-05-14 15:57:53,1.149s,PASSED
"setText(findTestObject(""Object Repository/Page_CURA Healthcare Service/input_Username_username""), user)",Chrome 74.0.3729.131,,,2019-05-14 15:57:53,2019-05-14 15:57:54,0.211s,PASSED
"setText(findTestObject(""Page_CURA Healthcare Service/input_Password_password""), password)",Chrome 74.0.3729.131,,,2019-05-14 15:57:54,2019-05-14 15:57:54,0.166s,PASSED
"click(findTestObject(""Object Repository/Page_CURA Healthcare Service/button_Login""))",Chrome 74.0.3729.131,,,2019-05-14 15:57:54,2019-05-14 15:57:56,2.214s,PASSED
"if (status == ""x"")",Chrome 74.0.3729.131,,,2019-05-14 15:57:56,2019-05-14 15:57:56,0.076s,PASSED
closeBrowser(),Chrome 74.0.3729.131,,,2019-05-14 15:57:56,2019-05-14 15:57:57,0.737s,PASSED
Start listener action : sampleAfterTestCase,Chrome 74.0.3729.131,,,2019-05-14 15:57:57,2019-05-14 15:57:57,0.000s,PASSED
,,,,,,,
Test Cases/test_katalon7,Chrome 74.0.3729.131,,,2019-05-14 15:57:57,2019-05-14 15:58:17,20.441s,PASSED
Start listener action : sampleBeforeTestCase,Chrome 74.0.3729.131,,,2019-05-14 15:57:57,2019-05-14 15:57:57,0.000s,PASSED
"openBrowser("""")",Chrome 74.0.3729.131,,,2019-05-14 15:57:57,2019-05-14 15:58:01,3.887s,PASSED
"navigateToUrl(""https://katalon-demo-cura.herokuapp.com/"")",Chrome 74.0.3729.131,,,2019-05-14 15:58:01,2019-05-14 15:58:14,13.424s,PASSED
"click(findTestObject(""Object Repository/Page_CURA Healthcare Service/a_Make Appointment""))",Chrome 74.0.3729.131,,,2019-05-14 15:58:14,2019-05-14 15:58:15,0.999s,PASSED
"setText(findTestObject(""Object Repository/Page_CURA Healthcare Service/input_Username_username""), user)",Chrome 74.0.3729.131,,,2019-05-14 15:58:15,2019-05-14 15:58:15,0.197s,PASSED
"setText(findTestObject(""Page_CURA Healthcare Service/input_Password_password""), password)",Chrome 74.0.3729.131,,,2019-05-14 15:58:15,2019-05-14 15:58:15,0.138s,PASSED
"click(findTestObject(""Object Repository/Page_CURA Healthcare Service/button_Login""))",Chrome 74.0.3729.131,,,2019-05-14 15:58:15,2019-05-14 15:58:16,0.954s,PASSED
"if (status == ""x"")",Chrome 74.0.3729.131,,,2019-05-14 15:58:16,2019-05-14 15:58:16,0.073s,PASSED
closeBrowser(),Chrome 74.0.3729.131,,,2019-05-14 15:58:16,2019-05-14 15:58:17,0.720s,PASSED
Start listener action : sampleAfterTestCase,Chrome 74.0.3729.131,,,2019-05-14 15:58:17,2019-05-14 15:58:17,0.001s,PASSED
,,,,,,,
Test Cases/test_katalon7,Chrome 74.0.3729.131,,,2019-05-14 15:58:17,2019-05-14 15:58:37,20.179s,FAILED
Start listener action : sampleBeforeTestCase,Chrome 74.0.3729.131,,,2019-05-14 15:58:17,2019-05-14 15:58:17,0.000s,PASSED
"openBrowser("""")",Chrome 74.0.3729.131,,,2019-05-14 15:58:17,2019-05-14 15:58:21,3.274s,PASSED
"navigateToUrl(""https://katalon-demo-cura.herokuapp.com/"")",Chrome 74.0.3729.131,,,2019-05-14 15:58:21,2019-05-14 15:58:35,14.073s,PASSED
"click(findTestObject(""Object Repository/Page_CURA Healthcare Service/a_Make Appointment""))",Chrome 74.0.3729.131,,,2019-05-14 15:58:35,2019-05-14 15:58:36,1.118s,PASSED
"setText(findTestObject(""Object Repository/Page_CURA Healthcare Service/input_Username_username""), user)",Chrome 74.0.3729.131,,,2019-05-14 15:58:36,2019-05-14 15:58:36,0.171s,PASSED
"setText(findTestObject(""Page_CURA Healthcare Service/input_Password_password""), password)",Chrome 74.0.3729.131,,,2019-05-14 15:58:36,2019-05-14 15:58:36,0.184s,PASSED
"click(findTestObject(""Object Repository/Page_CURA Healthcare Service/button_Login""))",Chrome 74.0.3729.131,,,2019-05-14 15:58:36,2019-05-14 15:58:37,1.113s,PASSED
"if (status == ""x"")",Chrome 74.0.3729.131,,,2019-05-14 15:58:37,2019-05-14 15:58:37,0.000s,PASSED
"else if (status == ""y"")",Chrome 74.0.3729.131,,,2019-05-14 15:58:37,2019-05-14 15:58:37,0.209s,FAILED
Start listener action : sampleAfterTestCase,Chrome 74.0.3729.131,,,2019-05-14 15:58:37,2019-05-14 15:58:37,0.001s,PASSED
